{
  "kind": "books#volume",
  "id": "OeAj9bffEMIC",
  "etag": "weiKEe9pM3A",
  "selfLink": "https://www.googleapis.com/books/v1/volumes/OeAj9bffEMIC",
  "volumeInfo": {
    "title": "The Eyeball Collector",
    "authors": [
      "F. E. Higgins"
    ],
    "publisher": "Feiwel & Friends",
    "publishedDate": "2009-09-01",
    "description": "\u003cp\u003eAlthough Hector Fitzbaudly has always lived a plush life on the posh side of the River Foedus, he's yearned to slip away from his comfortable home and see the seedy side of Urbs Umida. Unfortunately, he gets his chance when a blackmail artist confronts his father with a terrible secret from his past, and Hector finds himself penniless and on the streets. He is determined to get his revenge against the man responsible, who has been a pauper, a gentleman, and an Eyeball Collector—stealing jewels from the wealthy to make false eyes to replace his missing one. He is a master of disguise, and a swindler who moves from place to place. \u003cbr\u003e\u003cbr\u003eHector trails the Eyeball Collector to the small village of Pagus Parvus and the foreboding Withypitts Hall, run by the eccentric Lady Mandible who has a strange taste for the macabre. He takes a job incubating butterflies for Lady Mandible, and places himself in the perfect position to take revenge. Hector is so close to the Eyeball Collector, but will he be able to go through with his plan? \u003cbr\u003e\u003cbr\u003eOnce again, F. E. Higgins takes readers into her world filled with grand balls and hairy-backed beasts, plotting nobility and clever orphans, and creates a spine-tingling story that is her most eerie yet.\u003c/p\u003e",
    "industryIdentifiers": [
      {
        "type": "ISBN_10",
        "identifier": "1429927194"
      },
      {
        "type": "ISBN_13",
        "identifier": "9781429927192"
      }
    ],
    "readingModes": {
      "text": true,
      "image": false
    },
    "pageCount": 272,
    "printedPageCount": 268,
    "printType": "BOOK",
    "categories": [
      "Juvenile Fiction / Mysteries & Detective Stories",
      "Juvenile Fiction / Fantasy & Magic",
      "Juvenile Fiction / Historical / Europe"
    ],
    "averageRating": 4,
    "ratingsCount": 4,
    "maturityRating": "NOT_MATURE",
    "allowAnonLogging": false,
    "contentVersion": "2.4.3.0.preview.2",
    "panelizationSummary": {
      "containsEpubBubbles": false,
      "containsImageBubbles": false
    },
    "imageLinks": {
      "smallThumbnail": "http://books.google.com/books/content?id=OeAj9bffEMIC&printsec=frontcover&img=1&zoom=5&edge=curl&imgtk=AFLRE706aRvczFCD1yct6iB79KqsZboX5ufvh3mDTrlHaK8tu0cBza3PLEk-p8LN8DXO7775GuVJ_AlcXHWg5PaURlH5KLLsw4oc3LEo1FxROkgCyvBsBenARFMyHeIvnQIfgAauTITV&source=gbs_api",
      "thumbnail": "http://books.google.com/books/content?id=OeAj9bffEMIC&printsec=frontcover&img=1&zoom=1&edge=curl&imgtk=AFLRE701G-hS8TK8Nh_-iFpj4czVtMF0DsWd-YHn3XRK-p-83bopRPXgnhdYVwUhUzTQ6LOVI9vl6LzOlNfSgZ-q32v82iw0myD8HKCRtG_6h3Ww_d8IJtIDjYsPiOHVAmfr1vzFK8jC&source=gbs_api",
      "small": "http://books.google.com/books/content?id=OeAj9bffEMIC&printsec=frontcover&img=1&zoom=2&edge=curl&imgtk=AFLRE73H7Z79pRO5oDsaV7wB3XH23pyJr9DXrXG7L2JiZXHS3VUWQ2VxhxqOT0qjz8fedt6iOCFs_jEhJN1xq0eeDdhCtsu9GjPaBKNZOs3jZC6QuMry2-2i0Ba5gb244oRepjgT4oZB&source=gbs_api",
      "mediumDisable": "http://books.google.com/books/content?id=OeAj9bffEMIC&printsec=frontcover&img=1&zoom=3&edge=curl&imgtk=AFLRE71YGxxRHxiVf-Ui08XAJhin6SBksMfkArkRVyw0jgMlRNvHtpe_alfWDQyEQ98Z4XSU9f0dL7tuTlDDolOZ4qfP3XIsWZrpoFGY9Pq26eu43dlUlVoknDQaGtsjundsm-C6EA-s&source=gbs_api",
      "large": "http://books.google.com/books/content?id=OeAj9bffEMIC&printsec=frontcover&img=1&zoom=4&edge=curl&imgtk=AFLRE73pSQfiopq2VV5G45TZiXl8OAoXoGYuHZKbe8WHItpVJlKBIa2wnYP6TdqazWVFjunnRUw4WzIGyOqzp23xGq-65UfUWDflwNcAoin6EwcM23a0irKzRGB381dgvkfkiXWXz4Fe&source=gbs_api",
      "extraLarge": "http://books.google.com/books/content?id=OeAj9bffEMIC&printsec=frontcover&img=1&zoom=6&edge=curl&imgtk=AFLRE71GWAs1LuvRVET2M_yink1QoB7Ra3rdYzxlsE34WgzX76nGEYGqYy10e3DObCWERwgXopsSQDOTaWR0Gjcb4QRsVyzeb1N0TbPkbqk1eaLFbdMmE43DIEKLJkIP4AvTYCkpku5G&source=gbs_api"
    },
    "language": "en",
    "previewLink": "http://books.google.com/books?id=OeAj9bffEMIC&hl=&source=gbs_api",
    "infoLink": "https://play.google.com/store/books/details?id=OeAj9bffEMIC&source=gbs_api",
    "canonicalVolumeLink": "https://play.google.com/store/books/details?id=OeAj9bffEMIC"
  },
  "layerInfo": {
    "layers": [
      {
        "layerId": "geo",
        "volumeAnnotationsVersion": "9"
      }
    ]
  },
  "saleInfo": {
    "country": "US",
    "saleability": "FOR_SALE",
    "isEbook": true,
    "listPrice": {
      "amount": 9.99,
      "currencyCode": "USD"
    },
    "retailPrice": {
      "amount": 9.99,
      "currencyCode": "USD"
    },
    "buyLink": "https://play.google.com/store/books/details?id=OeAj9bffEMIC&rdid=book-OeAj9bffEMIC&rdot=1&source=gbs_api",
    "offers": [
      {
        "finskyOfferType": 1,
        "listPrice": {
          "amountInMicros": 9990000,
          "currencyCode": "USD"
        },
        "retailPrice": {
          "amountInMicros": 9990000,
          "currencyCode": "USD"
        },
        "giftable": true
      }
    ]
  },
  "accessInfo": {
    "country": "US",
    "viewability": "PARTIAL",
    "embeddable": true,
    "publicDomain": false,
    "textToSpeechPermission": "ALLOWED",
    "epub": {
      "isAvailable": true,
      "acsTokenLink": "http://books.google.com/books/download/The_Eyeball_Collector-sample-epub.acsm?id=OeAj9bffEMIC&format=epub&output=acs4_fulfillment_token&dl_type=sample&source=gbs_api"
    },
    "pdf": {
      "isAvailable": false
    },
    "webReaderLink": "http://play.google.com/books/reader?id=OeAj9bffEMIC&hl=&printsec=frontcover&source=gbs_api",
    "accessViewStatus": "SAMPLE",
    "quoteSharingAllowed": false
  }
}
